Categorize numeric variables into categories — categorize_scale • tidycomm
…
    Examples

WoJ %>%
dplyr::select(trust_parliament, trust_politicians) %>%
categorize_scale(trust_parliament, trust_politicians,
lower_end = 1, upper_end = 5, breaks = c(2, 3),
labels = c("Low", "Medium", "High"), overwrite = FALSE)
#> # A tibble: 1,200 × 4
#>    trust_parliament trust_politicians trust_parliament_cat trust_politicians_cat
#>  *            <dbl>             <dbl> <fct>                <fct>                
#>  1                3                 3 Medium               Medium               
#>  2                4                 3 High                 Medium               
#>  3                4                 3 High                 Medium               
#>  4                4                 3 High                 Medium               
#>  5                3                 2 Medium               Low                  
#>  6                4                 2 High                 Low                  
#>  7                2                 2 Low                  Low                  
#>  8                4                 3 High                 Medium               
#>  9                1                 1 Low                  Low                  
#> 10                3                 3 Medium               Medium               
#> # ℹ 1,190 more rows
WoJ %>%
dplyr::select(autonomy_selection) %>%
categorize_scale(autonomy_selection, breaks = c(2, 3, 4),
lower_end = 1, upper_end = 5,
labels = c("Low", "Medium", "High", "Very High"),
name = "autonomy_in_categories")
#> # A tibble: 1,200 × 2
#>    autonomy_selection autonomy_in_categories_1
#>  *              <dbl> <fct>                   
#>  1                  5 Very High               
#>  2                  3 Medium                  
#>  3                  4 High                    
#>  4                  4 High                    
#>  5                  4 High                    
#>  6                  4 High                    
#>  7                  4 High                    
#>  8                  3 Medium                  
#>  9                  5 Very High               
#> 10                  2 Low                     
#> # ℹ 1,190 more rows
…
