Compute correlation coefficients — correlate • tidycomm
…
    Value

    a tdcmm model

    Examples

WoJ %>% correlate(ethics_1, ethics_2, ethics_3)
#> # A tibble: 3 × 6
#>   x        y            r    df        p     n
#> * <chr>    <chr>    <dbl> <int>    <dbl> <int>
#> 1 ethics_1 ethics_2 0.172  1198 2.04e- 9  1200
#> 2 ethics_1 ethics_3 0.165  1198 8.44e- 9  1200
#> 3 ethics_2 ethics_3 0.409  1198 1.05e-49  1200
WoJ %>% correlate()
#> # A tibble: 55 × 6
#>    x                  y                        r    df         p     n
#>  * <chr>              <chr>                <dbl> <int>     <dbl> <int>
#>  1 autonomy_selection autonomy_emphasis  0.644    1192 4.83e-141  1194
#>  2 autonomy_selection ethics_1          -0.0766   1195 7.98e-  3  1197
#>  3 autonomy_selection ethics_2          -0.0274   1195 3.43e-  1  1197
#>  4 autonomy_selection ethics_3          -0.0257   1195 3.73e-  1  1197
#>  5 autonomy_selection ethics_4          -0.0781   1195 6.89e-  3  1197
#>  6 autonomy_selection work_experience    0.161    1182 2.71e-  8  1184
#>  7 autonomy_selection trust_parliament  -0.00840  1195 7.72e-  1  1197
#>  8 autonomy_selection trust_government   0.0414   1195 1.53e-  1  1197
#>  9 autonomy_selection trust_parties      0.0269   1195 3.52e-  1  1197
#> 10 autonomy_selection trust_politicians  0.0109   1195 7.07e-  1  1197
#> # ℹ 45 more rows
…
