Bivariate analysis of continuous and/or categorical variables • tidycomm
…
Tidycomm includes four functions for bivariate explorative data analysis:

crosstab() for both categorical independent and dependent variables

t_test() for dichotomous categorical independent and continuous dependent variables

unianova() for polytomous categorical independent and continuous dependent variables

correlate() for both continuous independent and dependent variables

We will again use sample data from the Worlds of Journalism 2012-16 study for demonstration purposes:

WoJ
#> # A tibble: 1,200 x 15
#>    country   reach   employment temp_contract autonomy_selecti~ autonomy_emphas~
#>    <fct>     <fct>   <chr>      <fct>                     <dbl>            <dbl>
#>  1 Germany   Nation~ Full-time  Permanent                     5                4
#>  2 Germany   Nation~ Full-time  Permanent                     3                4
#>  3 Switzerl~ Region~ Full-time  Permanent                     4                4
#>  4 Switzerl~ Local   Part-time  Permanent                     4                5
#>  5 Austria   Nation~ Part-time  Permanent                     4                4
#>  6 Switzerl~ Local   Freelancer <NA>                          4                4
#>  7 Germany   Local   Full-time  Permanent                     4                4
#>  8 Denmark   Nation~ Full-time  Permanent                     3                3
#>  9 Switzerl~ Local   Full-time  Permanent                     5                5
#> 10 Denmark   Nation~ Full-time  Permanent                     2                4
#> # ... with 1,190 more rows, and 9 more variables: ethics_1 <dbl>,
#> #   ethics_2 <dbl>, ethics_3 <dbl>, ethics_4 <dbl>, work_experience <dbl>,
#> #   trust_parliament <dbl>, trust_government <dbl>, trust_parties <dbl>,
#> #   trust_politicians <dbl>
…
WoJ %>% 
  correlate(work_experience, autonomy_selection, autonomy_emphasis)
#> # A tibble: 3 x 5
#>   x                  y                      r    df         p
#>   <chr>              <chr>              <dbl> <int>     <dbl>
#> 1 work_experience    autonomy_selection 0.161  1182 2.71e-  8
#> 2 work_experience    autonomy_emphasis  0.155  1180 8.87e-  8
#> 3 autonomy_selection autonomy_emphasis  0.644  1192 4.83e-141

If no variables passed, correlations for all combinations of numerical variables will be computed:

WoJ %>% 
  correlate()
#> # A tibble: 55 x 5
#>    x                  y                        r    df         p
#>    <chr>              <chr>                <dbl> <int>     <dbl>
#>  1 autonomy_selection autonomy_emphasis  0.644    1192 4.83e-141
#>  2 autonomy_selection ethics_1          -0.0766   1195 7.98e-  3
#>  3 autonomy_selection ethics_2          -0.0274   1195 3.43e-  1
#>  4 autonomy_selection ethics_3          -0.0257   1195 3.73e-  1
#>  5 autonomy_selection ethics_4          -0.0781   1195 6.89e-  3
#>  6 autonomy_selection work_experience    0.161    1182 2.71e-  8
#>  7 autonomy_selection trust_parliament  -0.00840  1195 7.72e-  1
#>  8 autonomy_selection trust_government   0.0414   1195 1.53e-  1
#>  9 autonomy_selection trust_parties      0.0269   1195 3.52e-  1
#> 10 autonomy_selection trust_politicians  0.0109   1195 7.07e-  1
#> # ... with 45 more rows
…
