Intercoder reliability tests • tidycomm
…
Test data has to be structured in a long format, with one column
indicating the unit (e.g., article 1, article 2, etc.), one column
indicating the coder (either by a string or a numeric ID), and one
column each per coded variable to test.

For demonstration purposes, we will use the fbposts data
included in Tidycomm that consists of 45 political Facebook posts
(identified by post_id) coded by six coders (identified by
coder_id) for various formal (post type, number of pictures
used in post) and populism-related (attacks on elites, references to
‘the people’, othering) features:

fbposts
#> # A tibble: 270 × 7
#>    post_id coder_id type  n_pictures pop_elite pop_people pop_othering
#>      <int>    <int> <chr>      <int>     <int>      <int>        <int>
#>  1       1        1 photo          1         0          0            0
#>  2       1        2 photo          1         0          0            0
#>  3       1        3 photo          1         0          0            0
#>  4       1        4 photo          1         0          0            0
#>  5       1        5 photo          1         0          0            0
#>  6       1        6 photo          1         0          0            0
#>  7       2        1 photo          1         0          0            0
#>  8       2        2 photo          1         0          0            0
#>  9       2        3 photo          1         0          0            0
#> 10       2        4 photo          1         0          0            0
#> # ℹ 260 more rows
…
